{
    "name": "org.epichrome.runtime",
    "description": "Epichrome Runtime Host 2.4.26[001]", // filled in by Makefile
    "path": "APPHOSTPATH", // filled in by installepichromenmh
    "type": "stdio",
    "allowed_origins": [
        "chrome-extension://ngbmbabjgimgbfobhfhjpfhpmpnhbeea/",
        "chrome-extension://cknkfdhlojihpopgbmoknioompcojicj/"
    ] // filled in by Makefile
}
